Tải dữ liệu khu bảo tồn từ The World Database on Protected Areas
…
# Dữ liệu khu bảo tồn Việt Nam
vietnam <- wdpa_fetch(
  x = "Vietnam",       # Tên nước hoặc mã nước theo ISO3 (ví dụ VNM)
  wait = TRUE,       
  download_dir = "."   # Thư mục lưu file, "." nghĩa là sẽ lưu ở thư mục làm việc hiện tại  (working directory)
)

vietnam

Simple feature collection with 191 features and 28 fields
Geometry type: GEOMETRY
Dimension:     XY
Bounding box:  xmin: 102.1522 ymin: 8.429265 xmax: 109.4629 ymax: 23.17159
Geodetic CRS:  WGS 84
# A tibble: 191 × 29
   WDPAID WDPA_PID PA_DEF NAME         ORIG_NAME DESIG DESIG_ENG DESIG_TYPE IUCN_CAT INT_CRIT MARINE REP_M_AREA REP_AREA
 *  <dbl> <chr>    <chr>  <chr>        <chr>     <chr> <chr>     <chr>      <chr>    <chr>    <chr>       <dbl>    <dbl>
 1 902735 902735   1      Bau Sau      Bau Sau   Rams… Ramsar S… Internati… Not Rep… (i)(ii)… 0             0     138.  
 2   7877 7877     1      Cat Ba       Cát Bà    Vườn… National… National   II       Not App… 1             0     174.  
 3   7878 7878     1      Cuc Phuong   Cúc Phươ… Vườn… National… National   II       Not App… 0             0     224.  
 4  10110 10110    1      Bach Ma      Bạch Mã   Vườn… National… National   II       Not App… 0             0     375.  
 5  10111 10111    1      Con Dao      Côn Đảo   Vườn… National… National   II       Not App… 1            42.7    58.3 
 6  10113 10113    1      Ba Vi        Vườn quố… Vườn… National… National   II       Not App… 0             0      97.0 
 7  10114 10114    1      Ngoc Trao    Ngoc Trao Cult… Cultural… National   V        Not App… 0             0       3   
 8  10117 10117    1      Den Hung     Đền Hùng  Khu … Cultural… National   V        Not App… 0             0       5.38
 9  10127 10127    1      Bac Son      Bắc Sơn   Khu … Nature R… National   V        Not App… 0             0      10.1 
10  10187 10187    1      Ban dao Son… Bán đảo … Khu … Nature R… National   Not Rep… Not App… 0             0      25.9 
# ℹ 181 more rows
# ℹ 16 more variables: NO_TAKE <chr>, NO_TK_AREA <dbl>, STATUS <chr>, STATUS_YR <int>, GOV_TYPE <chr>, OWN_TYPE <chr>,
#   MANG_AUTH <chr>, MANG_PLAN <chr>, VERIF <chr>, METADATAID <int>, SUB_LOC <chr>, PARENT_ISO <chr>, ISO3 <chr>,
#   SUPP_INFO <chr>, CONS_OBJ <chr>, geometry <GEOMETRY [°]>
…
